%YAML 1.1
%TAG !u! tag:unity3d.com,2011:
--- !u!1045 &1
EditorBuildSettings:
  m_ObjectHideFlags: 0
  serializedVersion: 2
  m_Scenes:
  - enabled: 1
    path: Assets/Scenes/Levels.unity
    guid: 061ac8f5eb196dc4ea025e1d706df4fe
  - enabled: 1
    path: Assets/Scenes/Game.unity
    guid: 2cda990e2423bbf4892e6590ba056729
  - enabled: 1
    path: Assets/Scenes/Part00.unity
    guid: 6b7c86b4147077c459cc32e6b8ca2bc9
  - enabled: 1
    path: Assets/Scenes/Part01.unity
    guid: 6a6ec80a1c5db0f488fa280e65af5e40
  - enabled: 1
    path: Assets/Scenes/Part02.unity
    guid: bedcd34836b5f3f4a8799d393fe1bb19
  - enabled: 1
    path: Assets/Scenes/Part03.unity
    guid: b65fea51a76a21c4d9a7c340ae76c914
  - enabled: 1
    path: Assets/Scenes/Part04.unity
    guid: 8aee64caea8d928428f416d50a691054
  m_configObjects: {}
